{
  "athletes": [
    {
      "avatar_url": "http://lorempixel.com/150/150/sports/kitman-labs/",
      "country": "Korea (North)",
      "last_played": "Sun Mar 15 2015 15:58:00 GMT+0000 (UTC)",
      "name": "Meagan Gill",
      "position": "prop",
      "is_injured": true,
      "id": 0
    },
    {
      "avatar_url": "http://lorempixel.com/150/150/sports/kitman-labs/",
      "country": "Falkland Islands (Malvinas)",
      "last_played": "Thu Mar 05 2015 19:46:18 GMT+0000 (UTC)",
      "name": "Hillary Wiggins",
      "position": "full-back",
      "is_injured": false,
      "id": 1
    },
    {
      "avatar_url": "http://lorempixel.com/150/150/sports/kitman-labs/",
      "country": "Bulgaria",
      "last_played": "Fri Sep 11 2015 14:52:35 GMT+0000 (UTC)",
      "name": "Bright Hicks",
      "position": "centre",
      "is_injured": true,
      "id": 2
    },
    {
      "avatar_url": "http://lorempixel.com/150/150/sports/kitman-labs/",
      "country": "Mauritania",
      "last_played": "Mon May 18 2015 04:30:22 GMT+0000 (UTC)",
      "name": "Harriett Schroeder",
      "position": "flanker",
      "is_injured": true,
      "id": 3
    },
    {
      "avatar_url": "http://lorempixel.com/150/150/sports/kitman-labs/",
      "country": "Somalia",
      "last_played": "Sun Apr 19 2015 16:25:42 GMT+0000 (UTC)",
      "name": "Willa Winters",
      "position": "out-half",
      "is_injured": false,
      "id": 4
    },
    {
      "avatar_url": "http://lorempixel.com/150/150/sports/kitman-labs",
      "country": "Palau",
      "last_played": "Sun Mar 15 2015 13:51:03 GMT+0000 (UTC)",
      "name": "Marsh Armstrong",
      "position": "full-back",
      "is_injured": true,
      "id": 5
    },
    {
      "avatar_url": "http://lorempixel.com/150/150/sports/kitman-labs",
      "country": "Jordan",
      "last_played": "Tue Jun 02 2015 10:19:30 GMT+0000 (UTC)",
      "name": "Conley Odonnell",
      "position": "centre",
      "is_injured": true,
      "id": 6
    },
    {
      "avatar_url": "http://lorempixel.com/150/150/sports/kitman-labs",
      "country": "Tanzania",
      "last_played": "Fri Apr 24 2015 19:54:47 GMT+0000 (UTC)",
      "name": "Gallagher Grimes",
      "position": "flanker",
      "is_injured": false,
      "id": 7
    },
    {
      "avatar_url": "http://lorempixel.com/150/150/sports/kitman-labs",
      "country": "Netherlands Antilles",
      "last_played": "Fri Jan 23 2015 03:14:38 GMT+0000 (UTC)",
      "name": "Britney Ballard",
      "position": "hooker",
      "is_injured": false,
      "id": 8
    },
    {
      "avatar_url": "http://lorempixel.com/150/150/sports/kitman-labs",
      "country": "South Africa",
      "last_played": "Sat May 23 2015 10:33:19 GMT+0000 (UTC)",
      "name": "Edwards Robinson",
      "position": "number-eight",
      "is_injured": false,
      "id": 9
    },
    {
      "avatar_url": "http://lorempixel.com/150/150/sports/kitman-labs/",
      "country": "Finland",
      "last_played": "Fri Jun 26 2015 05:44:21 GMT+0000 (UTC)",
      "name": "Claudine Noel",
      "position": "number-eight",
      "is_injured": true,
      "id": 10
    },
    {
      "avatar_url": "http://lorempixel.com/150/150/sports/kitman-labs/",
      "country": "Saint Lucia",
      "last_played": "Thu Jan 01 2015 12:34:11 GMT+0000 (UTC)",
      "name": "Bridgette Kelly",
      "position": "winger",
      "is_injured": true,
      "id": 11
    },
    {
      "avatar_url": "http://lorempixel.com/150/150/sports/kitman-labs/",
      "country": "Congo",
      "last_played": "Fri Sep 04 2015 15:49:06 GMT+0000 (UTC)",
      "name": "Caitlin House",
      "position": "out-half",
      "is_injured": false,
      "id": 12
    },
    {
      "avatar_url": "http://lorempixel.com/150/150/sports/kitman-labs/",
      "country": "Barbados",
      "last_played": "Thu Jan 01 2015 18:50:57 GMT+0000 (UTC)",
      "name": "Heather Hyde",
      "position": "winger",
      "is_injured": true,
      "id": 13
    },
    {
      "avatar_url": "http://lorempixel.com/150/150/sports/kitman-labs/",
      "country": "Antarctica",
      "last_played": "Tue May 12 2015 08:27:11 GMT+0000 (UTC)",
      "name": "Monique Heath",
      "position": "centre",
      "is_injured": true,
      "id": 14
    },
    {
      "avatar_url": "http://lorempixel.com/150/150/sports/kitman-labs/",
      "country": "Virgin Islands (British)",
      "last_played": "Fri Feb 13 2015 06:33:21 GMT+0000 (UTC)",
      "name": "Ruthie Harrington",
      "position": "hooker",
      "is_injured": false,
      "id": 15
    },
    {
      "avatar_url": "http://lorempixel.com/150/150/sports/kitman-labs/",
      "country": "Dominican Republic",
      "last_played": "Thu Mar 26 2015 04:53:29 GMT+0000 (UTC)",
      "name": "Courtney Wells",
      "position": "lock",
      "is_injured": false,
      "id": 16
    },
    {
      "avatar_url": "http://lorempixel.com/150/150/sports/kitman-labs/",
      "country": "Bermuda",
      "last_played": "Wed Mar 18 2015 09:04:42 GMT+0000 (UTC)",
      "name": "Whitney Stewart",
      "position": "prop",
      "is_injured": true,
      "id": 17
    },
    {
      "avatar_url": "http://lorempixel.com/150/150/sports/kitman-labs/",
      "country": "France",
      "last_played": "Wed Jul 29 2015 09:08:43 GMT+0000 (UTC)",
      "name": "Diana Wiley",
      "position": "winger",
      "is_injured": false,
      "id": 18
    },
    {
      "avatar_url": "http://lorempixel.com/150/150/sports/kitman-labs/",
      "country": "Chad",
      "last_played": "Mon Feb 16 2015 10:07:48 GMT+0000 (UTC)",
      "name": "Carolyn Griffith",
      "position": "number-eight",
      "is_injured": false,
      "id": 19
    },
    {
      "avatar_url": "http://lorempixel.com/150/150/sports/kitman-labs/",
      "country": "Tunisia",
      "last_played": "Sat May 23 2015 21:38:05 GMT+0000 (UTC)",
      "name": "Willie Dunn",
      "position": "full-back",
      "is_injured": false,
      "id": 20
    },
    {
      "avatar_url": "http://lorempixel.com/150/150/sports/kitman-labs/",
      "country": "Peru",
      "last_played": "Tue Jun 09 2015 18:52:36 GMT+0000 (UTC)",
      "name": "Hollie Sparks",
      "position": "number-eight",
      "is_injured": false,
      "id": 21
    },
    {
      "avatar_url": "http://lorempixel.com/150/150/sports/kitman-labs/",
      "country": "Liberia",
      "last_played": "Mon Jul 20 2015 20:06:24 GMT+0000 (UTC)",
      "name": "Cooke Moore",
      "position": "lock",
      "is_injured": true,
      "id": 22
    },
    {
      "avatar_url": "http://lorempixel.com/150/150/sports/kitman-labs/",
      "country": "Zambia",
      "last_played": "Tue Apr 21 2015 01:49:08 GMT+0000 (UTC)",
      "name": "Sweet Jordan",
      "position": "centre",
      "is_injured": false,
      "id": 23
    },
    {
      "avatar_url": "http://lorempixel.com/150/150/sports/kitman-labs/",
      "country": "Zimbabwe",
      "last_played": "Sat Feb 21 2015 03:26:55 GMT+0000 (UTC)",
      "name": "Jacobs Sherman",
      "position": "winger",
      "is_injured": false,
      "id": 24
    },
    {
      "avatar_url": "http://lorempixel.com/150/150/sports/kitman-labs/",
      "country": "Israel",
      "last_played": "Tue Feb 24 2015 06:43:22 GMT+0000 (UTC)",
      "name": "Good Wagner",
      "position": "prop",
      "is_injured": true,
      "id": 25
    },
    {
      "avatar_url": "http://lorempixel.com/150/150/sports/kitman-labs/",
      "country": "Andorra",
      "last_played": "Mon Mar 30 2015 22:14:22 GMT+0000 (UTC)",
      "name": "Joy Stein",
      "position": "scrum-half",
      "is_injured": false,
      "id": 26
    },
    {
      "avatar_url": "http://lorempixel.com/150/150/sports/kitman-labs/",
      "country": "St. Helena",
      "last_played": "Mon May 04 2015 00:11:14 GMT+0000 (UTC)",
      "name": "Copeland Rodriquez",
      "position": "number-eight",
      "is_injured": true,
      "id": 27
    },
    {
      "avatar_url": "http://lorempixel.com/150/150/sports/kitman-labs/",
      "country": "Kyrgyzstan",
      "last_played": "Sun Jul 19 2015 05:46:06 GMT+0000 (UTC)",
      "name": "Patterson James",
      "position": "hooker",
      "is_injured": false,
      "id": 28
    },
    {
      "avatar_url": "http://lorempixel.com/150/150/sports/kitman-labs/",
      "country": "Bangladesh",
      "last_played": "Sat Mar 07 2015 17:38:39 GMT+0000 (UTC)",
      "name": "Terrell Blackwell",
      "position": "prop",
      "is_injured": true,
      "id": 29
    },
    {
      "avatar_url": "http://lorempixel.com/150/150/sports/kitman-labs/",
      "country": "Christmas Island",
      "last_played": "Fri Jan 30 2015 23:37:22 GMT+0000 (UTC)",
      "name": "Ines Russell",
      "position": "out-half",
      "is_injured": true,
      "id": 30
    },
    {
      "avatar_url": "http://lorempixel.com/150/150/sports/kitman-labs/",
      "country": "Bahamas",
      "last_played": "Mon Jan 19 2015 09:34:14 GMT+0000 (UTC)",
      "name": "Lawanda Maddox",
      "position": "centre",
      "is_injured": false,
      "id": 31
    },
    {
      "avatar_url": "http://lorempixel.com/150/150/sports/kitman-labs/",
      "country": "Chile",
      "last_played": "Sun Feb 22 2015 10:06:32 GMT+0000 (UTC)",
      "name": "England Cobb",
      "position": "prop",
      "is_injured": true,
      "id": 32
    },
    {
      "avatar_url": "http://lorempixel.com/150/150/sports/kitman-labs/",
      "country": "Ecuador",
      "last_played": "Thu Sep 10 2015 04:35:21 GMT+0000 (UTC)",
      "name": "Calderon Byrd",
      "position": "lock",
      "is_injured": false,
      "id": 33
    },
    {
      "avatar_url": "http://lorempixel.com/150/150/sports/kitman-labs/",
      "country": "Western Sahara",
      "last_played": "Tue Jan 06 2015 12:14:02 GMT+0000 (UTC)",
      "name": "Sheryl Sexton",
      "position": "centre",
      "is_injured": false,
      "id": 34
    },
    {
      "avatar_url": "http://lorempixel.com/150/150/sports/kitman-labs/",
      "country": "Iceland",
      "last_played": "Sun May 10 2015 03:06:43 GMT+0000 (UTC)",
      "name": "Loraine Stevenson",
      "position": "centre",
      "is_injured": false,
      "id": 35
    },
    {
      "avatar_url": "http://lorempixel.com/150/150/sports/kitman-labs/",
      "country": "United Kingdom",
      "last_played": "Tue Feb 17 2015 06:57:52 GMT+0000 (UTC)",
      "name": "Rosa Sloan",
      "position": "number-eight",
      "is_injured": true,
      "id": 36
    },
    {
      "avatar_url": "http://lorempixel.com/150/150/sports/kitman-labs/",
      "country": "Denmark",
      "last_played": "Mon Mar 23 2015 17:01:44 GMT+0000 (UTC)",
      "name": "Fitzgerald Gonzalez",
      "position": "centre",
      "is_injured": false,
      "id": 37
    },
    {
      "avatar_url": "http://lorempixel.com/150/150/sports/kitman-labs/",
      "country": "Saint Vincent and The Grenadines",
      "last_played": "Sun May 10 2015 09:47:43 GMT+0000 (UTC)",
      "name": "Mercedes Whitehead",
      "position": "prop",
      "is_injured": false,
      "id": 38
    },
    {
      "avatar_url": "http://lorempixel.com/150/150/sports/kitman-labs/",
      "country": "French Guiana",
      "last_played": "Fri Jun 12 2015 09:29:36 GMT+0000 (UTC)",
      "name": "Hyde Harris",
      "position": "centre",
      "is_injured": true,
      "id": 39
    },
    {
      "avatar_url": "http://lorempixel.com/150/150/sports/kitman-labs/",
      "country": "French Polynesia",
      "last_played": "Sun May 03 2015 09:37:16 GMT+0000 (UTC)",
      "name": "Gail Holder",
      "position": "full-back",
      "is_injured": false,
      "id": 40
    },
    {
      "avatar_url": "http://lorempixel.com/150/150/sports/kitman-labs/",
      "country": "Lebanon",
      "last_played": "Sun May 24 2015 08:38:23 GMT+0000 (UTC)",
      "name": "Eva Weaver",
      "position": "scrum-half",
      "is_injured": false,
      "id": 41
    },
    {
      "avatar_url": "http://lorempixel.com/150/150/sports/kitman-labs/",
      "country": "Turks and Caicos Islands",
      "last_played": "Tue Apr 07 2015 14:47:17 GMT+0000 (UTC)",
      "name": "Lesley Carroll",
      "position": "winger",
      "is_injured": false,
      "id": 42
    },
    {
      "avatar_url": "http://lorempixel.com/150/150/sports/kitman-labs/",
      "country": "Martinique",
      "last_played": "Fri Feb 20 2015 07:34:47 GMT+0000 (UTC)",
      "name": "Ratliff Avery",
      "position": "prop",
      "is_injured": false,
      "id": 43
    },
    {
      "avatar_url": "http://lorempixel.com/150/150/sports/kitman-labs/",
      "country": "Guinea-Bissau",
      "last_played": "Sun Apr 19 2015 04:35:31 GMT+0000 (UTC)",
      "name": "Elinor Brennan",
      "position": "hooker",
      "is_injured": false,
      "id": 44
    },
    {
      "avatar_url": "http://lorempixel.com/150/150/sports/kitman-labs/",
      "country": "Cayman Islands",
      "last_played": "Thu Jan 29 2015 23:58:10 GMT+0000 (UTC)",
      "name": "Bridgett Lane",
      "position": "scrum-half",
      "is_injured": true,
      "id": 45
    },
    {
      "avatar_url": "http://lorempixel.com/150/150/sports/kitman-labs/",
      "country": "Virgin Islands (US)",
      "last_played": "Sat Jul 25 2015 14:18:26 GMT+0000 (UTC)",
      "name": "Callie Howell",
      "position": "scrum-half",
      "is_injured": true,
      "id": 46
    },
    {
      "avatar_url": "http://lorempixel.com/150/150/sports/kitman-labs/",
      "country": "Norway",
      "last_played": "Mon Jun 29 2015 04:48:11 GMT+0000 (UTC)",
      "name": "Kaufman Ferrell",
      "position": "flanker",
      "is_injured": false,
      "id": 47
    },
    {
      "avatar_url": "http://lorempixel.com/150/150/sports/kitman-labs/",
      "country": "Malaysia",
      "last_played": "Sat May 02 2015 21:09:21 GMT+0000 (UTC)",
      "name": "Golden Small",
      "position": "hooker",
      "is_injured": true,
      "id": 48
    },
    {
      "avatar_url": "http://lorempixel.com/150/150/sports/kitman-labs/",
      "country": "Iraq",
      "last_played": "Sun Jul 05 2015 12:21:24 GMT+0000 (UTC)",
      "name": "Figueroa Lucas",
      "position": "full-back",
      "is_injured": true,
      "id": 49
    },
    {
      "avatar_url": "http://lorempixel.com/150/150/sports/kitman-labs/",
      "country": "Yemen",
      "last_played": "Tue Sep 01 2015 07:53:58 GMT+0000 (UTC)",
      "name": "Gabriela King",
      "position": "lock",
      "is_injured": true,
      "id": 50
    },
    {
      "avatar_url": "http://lorempixel.com/150/150/sports/kitman-labs/",
      "country": "Austria",
      "last_played": "Thu Jan 08 2015 21:40:15 GMT+0000 (UTC)",
      "name": "Hess Clayton",
      "position": "centre",
      "is_injured": true,
      "id": 51
    },
    {
      "avatar_url": "http://lorempixel.com/150/150/sports/kitman-labs/",
      "country": "Belgium",
      "last_played": "Sat Jan 31 2015 22:00:03 GMT+0000 (UTC)",
      "name": "Glenn Thompson",
      "position": "scrum-half",
      "is_injured": false,
      "id": 52
    },
    {
      "avatar_url": "http://lorempixel.com/150/150/sports/kitman-labs/",
      "country": "Russian Federation",
      "last_played": "Fri Aug 14 2015 11:18:22 GMT+0000 (UTC)",
      "name": "Lorraine Bonner",
      "position": "number-eight",
      "is_injured": true,
      "id": 53
    },
    {
      "avatar_url": "http://lorempixel.com/150/150/sports/kitman-labs/",
      "country": "Benin",
      "last_played": "Sun Jul 19 2015 21:25:30 GMT+0000 (UTC)",
      "name": "Corrine Haney",
      "position": "hooker",
      "is_injured": false,
      "id": 54
    },
    {
      "avatar_url": "http://lorempixel.com/150/150/sports/kitman-labs/",
      "country": "Maldives",
      "last_played": "Mon Jun 29 2015 12:23:32 GMT+0000 (UTC)",
      "name": "Beasley Grant",
      "position": "flanker",
      "is_injured": false,
      "id": 55
    },
    {
      "avatar_url": "http://lorempixel.com/150/150/sports/kitman-labs/",
      "country": "Ireland",
      "last_played": "Sun Mar 08 2015 06:50:01 GMT+0000 (UTC)",
      "name": "Mcfadden Mercer",
      "position": "lock",
      "is_injured": true,
      "id": 56
    },
    {
      "avatar_url": "http://lorempixel.com/150/150/sports/kitman-labs/",
      "country": "Antigua and Barbuda",
      "last_played": "Sat Aug 01 2015 20:53:02 GMT+0000 (UTC)",
      "name": "Herrera Higgins",
      "position": "number-eight",
      "is_injured": false,
      "id": 57
    },
    {
      "avatar_url": "http://lorempixel.com/150/150/sports/kitman-labs/",
      "country": "Germany",
      "last_played": "Mon Jan 19 2015 01:28:44 GMT+0000 (UTC)",
      "name": "Berta Jennings",
      "position": "scrum-half",
      "is_injured": false,
      "id": 58
    },
    {
      "avatar_url": "http://lorempixel.com/150/150/sports/kitman-labs/",
      "country": "Taiwan",
      "last_played": "Tue Jun 16 2015 17:16:03 GMT+0000 (UTC)",
      "name": "Allie Patrick",
      "position": "full-back",
      "is_injured": false,
      "id": 59
    },
    {
      "avatar_url": "http://lorempixel.com/150/150/sports/kitman-labs/",
      "country": "Guyana",
      "last_played": "Sun Mar 08 2015 12:41:13 GMT+0000 (UTC)",
      "name": "Cleo Sanchez",
      "position": "out-half",
      "is_injured": false,
      "id": 60
    },
    {
      "avatar_url": "http://lorempixel.com/150/150/sports/kitman-labs/",
      "country": "Armenia",
      "last_played": "Wed Aug 19 2015 01:58:25 GMT+0000 (UTC)",
      "name": "Potter Garrison",
      "position": "flanker",
      "is_injured": true,
      "id": 61
    },
    {
      "avatar_url": "http://lorempixel.com/150/150/sports/kitman-labs/",
      "country": "Vanuatu",
      "last_played": "Mon Jul 27 2015 00:53:37 GMT+0000 (UTC)",
      "name": "Knapp Stanley",
      "position": "number-eight",
      "is_injured": false,
      "id": 62
    },
    {
      "avatar_url": "http://lorempixel.com/150/150/sports/kitman-labs/",
      "country": "Uzbekistan",
      "last_played": "Thu Feb 05 2015 14:32:46 GMT+0000 (UTC)",
      "name": "Barnett Ramirez",
      "position": "scrum-half",
      "is_injured": true,
      "id": 63
    },
    {
      "avatar_url": "http://lorempixel.com/150/150/sports/kitman-labs/",
      "country": "Costa Rica",
      "last_played": "Sat Jul 18 2015 21:23:33 GMT+0000 (UTC)",
      "name": "Dominguez Dean",
      "position": "winger",
      "is_injured": false,
      "id": 64
    },
    {
      "avatar_url": "http://lorempixel.com/150/150/sports/kitman-labs/",
      "country": "Azerbaijan",
      "last_played": "Sat Apr 25 2015 17:32:13 GMT+0000 (UTC)",
      "name": "Juliana Erickson",
      "position": "winger",
      "is_injured": false,
      "id": 65
    },
    {
      "avatar_url": "http://lorempixel.com/150/150/sports/kitman-labs/",
      "country": "Namibia",
      "last_played": "Tue Feb 10 2015 00:22:26 GMT+0000 (UTC)",
      "name": "Schmidt Banks",
      "position": "winger",
      "is_injured": false,
      "id": 66
    },
    {
      "avatar_url": "http://lorempixel.com/150/150/sports/kitman-labs/",
      "country": "Mexico",
      "last_played": "Mon Sep 14 2015 21:27:15 GMT+0000 (UTC)",
      "name": "Kirby Slater",
      "position": "prop",
      "is_injured": true,
      "id": 67
    },
    {
      "avatar_url": "http://lorempixel.com/150/150/sports/kitman-labs/",
      "country": "Niger",
      "last_played": "Sun May 31 2015 01:16:45 GMT+0000 (UTC)",
      "name": "Ethel Herrera",
      "position": "centre",
      "is_injured": false,
      "id": 68
    },
    {
      "avatar_url": "http://lorempixel.com/150/150/sports/kitman-labs/",
      "country": "Argentina",
      "last_played": "Tue May 26 2015 04:52:43 GMT+0000 (UTC)",
      "name": "Johnson Eaton",
      "position": "number-eight",
      "is_injured": false,
      "id": 69
    },
    {
      "avatar_url": "http://lorempixel.com/150/150/sports/kitman-labs/",
      "country": "British Indian Ocean Territory",
      "last_played": "Fri Mar 20 2015 19:42:21 GMT+0000 (UTC)",
      "name": "Salazar Roy",
      "position": "scrum-half",
      "is_injured": false,
      "id": 70
    },
    {
      "avatar_url": "http://lorempixel.com/150/150/sports/kitman-labs/",
      "country": "Australia",
      "last_played": "Thu Jan 15 2015 13:00:03 GMT+0000 (UTC)",
      "name": "Collins Lott",
      "position": "winger",
      "is_injured": true,
      "id": 71
    },
    {
      "avatar_url": "http://lorempixel.com/150/150/sports/kitman-labs/",
      "country": "Nauru",
      "last_played": "Sun Apr 05 2015 10:44:48 GMT+0000 (UTC)",
      "name": "Mooney Reese",
      "position": "prop",
      "is_injured": true,
      "id": 72
    },
    {
      "avatar_url": "http://lorempixel.com/150/150/sports/kitman-labs/",
      "country": "Malawi",
      "last_played": "Wed May 06 2015 14:15:51 GMT+0000 (UTC)",
      "name": "Sanders Bowers",
      "position": "out-half",
      "is_injured": false,
      "id": 73
    },
    {
      "avatar_url": "http://lorempixel.com/150/150/sports/kitman-labs/",
      "country": "Slovenia",
      "last_played": "Wed Feb 04 2015 19:43:23 GMT+0000 (UTC)",
      "name": "Bettye Newman",
      "position": "scrum-half",
      "is_injured": false,
      "id": 74
    },
    {
      "avatar_url": "http://lorempixel.com/150/150/sports/kitman-labs/",
      "country": "Vatican City State (Holy See)",
      "last_played": "Sun Sep 13 2015 20:39:10 GMT+0000 (UTC)",
      "name": "Ashlee Burks",
      "position": "scrum-half",
      "is_injured": true,
      "id": 75
    },
    {
      "avatar_url": "http://lorempixel.com/150/150/sports/kitman-labs/",
      "country": "Pakistan",
      "last_played": "Mon Mar 16 2015 01:25:59 GMT+0000 (UTC)",
      "name": "Flowers Merrill",
      "position": "out-half",
      "is_injured": true,
      "id": 76
    },
    {
      "avatar_url": "http://lorempixel.com/150/150/sports/kitman-labs/",
      "country": "Haiti",
      "last_played": "Wed Feb 18 2015 01:59:24 GMT+0000 (UTC)",
      "name": "Oconnor Baker",
      "position": "prop",
      "is_injured": false,
      "id": 77
    },
    {
      "avatar_url": "http://lorempixel.com/150/150/sports/kitman-labs/",
      "country": "Mali",
      "last_played": "Thu Mar 19 2015 18:39:07 GMT+0000 (UTC)",
      "name": "Ware Pickett",
      "position": "full-back",
      "is_injured": true,
      "id": 78
    },
    {
      "avatar_url": "http://lorempixel.com/150/150/sports/kitman-labs/",
      "country": "American Samoa",
      "last_played": "Thu Jun 04 2015 07:14:28 GMT+0000 (UTC)",
      "name": "Mccullough Sosa",
      "position": "out-half",
      "is_injured": false,
      "id": 79
    },
    {
      "avatar_url": "http://lorempixel.com/150/150/sports/kitman-labs/",
      "country": "Iran",
      "last_played": "Fri Jun 26 2015 23:37:19 GMT+0000 (UTC)",
      "name": "Victoria Meyer",
      "position": "hooker",
      "is_injured": false,
      "id": 80
    },
    {
      "avatar_url": "http://lorempixel.com/150/150/sports/kitman-labs/",
      "country": "Mongolia",
      "last_played": "Fri Jun 05 2015 04:00:43 GMT+0000 (UTC)",
      "name": "Janell Villarreal",
      "position": "centre",
      "is_injured": false,
      "id": 81
    },
    {
      "avatar_url": "http://lorempixel.com/150/150/sports/kitman-labs/",
      "country": "Laos",
      "last_played": "Mon Mar 09 2015 21:58:55 GMT+0000 (UTC)",
      "name": "Castro Reid",
      "position": "full-back",
      "is_injured": true,
      "id": 82
    },
    {
      "avatar_url": "http://lorempixel.com/150/150/sports/kitman-labs/",
      "country": "New Zealand",
      "last_played": "Sat Apr 25 2015 07:28:46 GMT+0000 (UTC)",
      "name": "Margie Kramer",
      "position": "hooker",
      "is_injured": true,
      "id": 83
    },
    {
      "avatar_url": "http://lorempixel.com/150/150/sports/kitman-labs/",
      "country": "Rwanda",
      "last_played": "Tue Apr 21 2015 13:43:20 GMT+0000 (UTC)",
      "name": "Clarice Shepherd",
      "position": "hooker",
      "is_injured": false,
      "id": 84
    },
    {
      "avatar_url": "http://lorempixel.com/150/150/sports/kitman-labs/",
      "country": "China",
      "last_played": "Sun Sep 06 2015 04:30:56 GMT+0000 (UTC)",
      "name": "Gonzalez Randolph",
      "position": "number-eight",
      "is_injured": false,
      "id": 85
    },
    {
      "avatar_url": "http://lorempixel.com/150/150/sports/kitman-labs/",
      "country": "Zaire",
      "last_played": "Tue Aug 11 2015 16:47:07 GMT+0000 (UTC)",
      "name": "Garner Woods",
      "position": "prop",
      "is_injured": true,
      "id": 86
    },
    {
      "avatar_url": "http://lorempixel.com/150/150/sports/kitman-labs/",
      "country": "Seychelles",
      "last_played": "Sun Jun 07 2015 10:08:59 GMT+0000 (UTC)",
      "name": "Solis Hancock",
      "position": "scrum-half",
      "is_injured": false,
      "id": 87
    },
    {
      "avatar_url": "http://lorempixel.com/150/150/sports/kitman-labs/",
      "country": "Monaco",
      "last_played": "Fri Jul 03 2015 20:41:16 GMT+0000 (UTC)",
      "name": "Tamara Waller",
      "position": "centre",
      "is_injured": false,
      "id": 88
    },
    {
      "avatar_url": "http://lorempixel.com/150/150/sports/kitman-labs/",
      "country": "Hong Kong",
      "last_played": "Sat Apr 11 2015 04:39:39 GMT+0000 (UTC)",
      "name": "Atkins Walls",
      "position": "number-eight",
      "is_injured": true,
      "id": 89
    },
    {
      "avatar_url": "http://lorempixel.com/150/150/sports/kitman-labs/",
      "country": "Jamaica",
      "last_played": "Sun May 03 2015 17:27:47 GMT+0000 (UTC)",
      "name": "Jessica Morton",
      "position": "prop",
      "is_injured": false,
      "id": 90
    },
    {
      "avatar_url": "http://lorempixel.com/150/150/sports/kitman-labs/",
      "country": "Bolivia",
      "last_played": "Wed Feb 25 2015 08:44:41 GMT+0000 (UTC)",
      "name": "Kelly Rowland",
      "position": "lock",
      "is_injured": true,
      "id": 91
    },
    {
      "avatar_url": "http://lorempixel.com/150/150/sports/kitman-labs/",
      "country": "Saudi Arabia",
      "last_played": "Thu Aug 13 2015 05:25:08 GMT+0000 (UTC)",
      "name": "Shawn Potter",
      "position": "out-half",
      "is_injured": true,
      "id": 92
    },
    {
      "avatar_url": "http://lorempixel.com/150/150/sports/kitman-labs/",
      "country": "Grenada",
      "last_played": "Fri May 15 2015 18:15:11 GMT+0000 (UTC)",
      "name": "Deirdre Lawson",
      "position": "centre",
      "is_injured": true,
      "id": 93
    },
    {
      "avatar_url": "http://lorempixel.com/150/150/sports/kitman-labs/",
      "country": "Sierra Leone",
      "last_played": "Tue Feb 24 2015 01:43:12 GMT+0000 (UTC)",
      "name": "Mcintyre Peters",
      "position": "hooker",
      "is_injured": true,
      "id": 94
    },
    {
      "avatar_url": "http://lorempixel.com/150/150/sports/kitman-labs/",
      "country": "Algeria",
      "last_played": "Sat May 23 2015 09:13:02 GMT+0000 (UTC)",
      "name": "Francis Curtis",
      "position": "hooker",
      "is_injured": true,
      "id": 95
    },
    {
      "avatar_url": "http://lorempixel.com/150/150/sports/kitman-labs/",
      "country": "Mozambique",
      "last_played": "Wed Mar 04 2015 18:24:43 GMT+0000 (UTC)",
      "name": "Brianna Knapp",
      "position": "flanker",
      "is_injured": false,
      "id": 96
    },
    {
      "avatar_url": "http://lorempixel.com/150/150/sports/kitman-labs/",
      "country": "Bhutan",
      "last_played": "Sun Feb 08 2015 09:24:02 GMT+0000 (UTC)",
      "name": "Pennington Rollins",
      "position": "scrum-half",
      "is_injured": false,
      "id": 97
    },
    {
      "avatar_url": "http://lorempixel.com/150/150/sports/kitman-labs/",
      "country": "Bosnia and Herzegovina",
      "last_played": "Wed Feb 11 2015 03:44:32 GMT+0000 (UTC)",
      "name": "Cohen David",
      "position": "scrum-half",
      "is_injured": false,
      "id": 98
    },
    {
      "avatar_url": "http://lorempixel.com/150/150/sports/kitman-labs/",
      "country": "Mauritius",
      "last_played": "Thu Apr 23 2015 13:50:36 GMT+0000 (UTC)",
      "name": "Doris Andrews",
      "position": "prop",
      "is_injured": false,
      "id": 99
    }
  ],
  "squads": [
    {
      "club": "Isotronic",
      "name": "Squad 0",
      "id": 0
    },
    {
      "club": "Kengen",
      "name": "Squad 1",
      "id": 1
    },
    {
      "club": "Namebox",
      "name": "Squad 2",
      "id": 2
    },
    {
      "club": "Kenegy",
      "name": "Squad 3",
      "id": 3
    },
    {
      "club": "Tri@Tribalog",
      "name": "Squad 4",
      "id": 4
    },
    {
      "club": "Fossiel",
      "name": "Squad 5",
      "id": 5
    },
    {
      "club": "Eclipto",
      "name": "Squad 6",
      "id": 6
    },
    {
      "club": "Ontality",
      "name": "Squad 7",
      "id": 7
    },
    {
      "club": "Comvey",
      "name": "Squad 8",
      "id": 8
    },
    {
      "club": "Mediot",
      "name": "Squad 9",
      "id": 9
    }
  ]
}
